module movieexample.com

go 1.19

require (
	github.com/confluentinc/confluent-kafka-go v1.9.2
	github.com/go-sql-driver/mysql v1.7.0
	github.com/golang/mock v1.6.0
	github.com/golang/protobuf v1.5.3
	github.com/google/go-cmp v0.5.9
	github.com/hashicorp/consul/api v1.20.0
	github.com/stretchr/testify v1.7.1
	google.golang.org/grpc v1.54.0
	google.golang.org/protobuf v1.30.0
	gopkg.in/yaml.v3 v3.0.1
)

require (
	github.com/armon/go-metrics v0.0.0-20180917152333-f0300d1749da // indirect
	github.com/davecgh/go-spew v1.1.1 // indirect
	github.com/fatih/color v1.9.0 // indirect
	github.com/hashicorp/go-cleanhttp v0.5.1 // indirect
	github.com/hashicorp/go-hclog v0.12.0 // indirect
	github.com/hashicorp/go-immutable-radix v1.0.0 // indirect
	github.com/hashicorp/go-rootcerts v1.0.2 // indirect
	github.com/hashicorp/golang-lru v0.5.4 // indirect
	github.com/hashicorp/serf v0.10.1 // indirect
	github.com/mattn/go-colorable v0.1.6 // indirect
	github.com/mattn/go-isatty v0.0.12 // indirect
	github.com/mitchellh/go-homedir v1.1.0 // indirect
	github.com/mitchellh/mapstructure v1.4.1 // indirect
	github.com/pmezard/go-difflib v1.0.0 // indirect
	golang.org/x/net v0.8.0 // indirect
	golang.org/x/sys v0.6.0 // indirect
	golang.org/x/text v0.8.0 // indirect
	google.golang.org/genproto v0.0.0-20230110181048-76db0878b65f // indirect
)
